<?xml version="1.0" encoding="utf-8"?>
<!-- Generator: Adobe Illustrator 23.0.2, SVG Export Plug-In . SVG Version: 6.00 Build 0)  -->
<svg version="1.1" id="Layer_6" xmlns="http://www.w3.org/2000/svg" xmlns:xlink="http://www.w3.org/1999/xlink" x="0px" y="0px"
	 width="300px" height="250px" viewBox="0 0 300 250" style="enable-background:new 0 0 300 250;" xml:space="preserve">
<style type="text/css">
	.st0{fill:#000;stroke:#221F1F;stroke-miterlimit:10;}
</style>
<path class="st0" d="M173.7,179.1c5.5,0.4,15.5,2.7,24.6,2.4c5.4,10.4,1.7,11.5-1.2,7.2c-1.3,1.7-18.9-3.3-24-1
	c0.4,0.4,0.7,0.8,1.1,1.3c7.9,4.4,13.9,7.6,21.8,12.1l0.7,2.5l-5.1,6.5c-0.4-0.2-0.8-0.3-1.2-0.4c-0.2-1.8-0.6-3.5-0.9-5.4
	c-1,0.9-2,1.8-3,2.7c-1.5-2.6-3-5-4.4-7.6c-4.9-0.7-9.9-1.4-14.8-2.1c-2.6-0.5-6.8-1.9-9.3-3.5c-2.3-3.6-0.9-10.7-2.9-13.7
	c-5.4-1-8.4,1.6-12,4c0,0.8,0,1.5,0,2.3c8.9,9.9,6.4,17.8,5.7,33.7c4.5,2.3,7.7,4.7,13.7,4c0,0.6,23.6,0.7,23.6,0.7
	c18.4-3.8,56.1-8.1,74.9-5.3c20,3,39,8,39,8L300,229H139.5l-0.1-1.5c-0.5-8.2,0-17.7,2.3-24.6c-2.1-1.5-4.2-3-6.3-4.6
	c-1.1,10.2-9.8,10.9-14.8,17.1c1.8,6.3,6,6.8,9.7,10.8l0.6,0.8l-0.2,2H0l-0.5-3.5c0,0,52-8,77-3c7.7,1.5,31,2.8,42.2,3.7l0.8-0.5
	c-1.4-0.4-2.7-1.1-4.2-2.2c-1.5-3.1-5.2-5.8-4.6-9.1c2.8-6.8,10.9-9.8,13.1-16c-2.3-4.4-4.6-8.8-6.9-13.1c-2-10.6,20.5-28.5,26.8-32
	c2.7-0.4,5.3-0.8,8-1.1c2.3-1.4,7.5-8.8,12.6-12c6.1-0.2,8.7,1.1,12,3.4c0,0.2,0,0.4,0,0.6c-1.6,5.6,0.5,3.6,4.6,8.6
	c-1.1,3-2.3,6.1-3.4,9.1c-2.3-0.6-4.6-1.1-6.9-1.7c-0.2,0.2-0.4,0.4-0.6,0.6C171.2,172.5,171.4,175.7,173.7,179.1z"/>
</svg>
